{
	"page": 1,
	"per_page": 3,
	"total": 7,
	"total_pages": 9,
	"data": [
		{
			"id": 22,
			"email": "ram@gmail.com",
			"first_name": "ram",
			"last_name": "kumar",
			"avatar": "www.amazon.com"
		},
		{
			"id": 33,
			"email": "sam@gmail.com",
			"first_name": "sam",
			"last_name": "son",
			"avatar": "www.flipkart.com"
		},
		{
			"id": 44,
			"email": "ramki@gmail.com",
			"first_name": "ramki",
			"last_name": "messi",
			"avatar": "www.snapdeal.com"
		}
	],
	"support": {
		"url": "www.facebook.com",
		"text": "messi"
	}
}